{
    "api": {
        "services": [
            "HandlerService",
            "LoggerService",
            "StatsService"
        ],
        "tag": "api"
    },
    "inbounds": [
        {
            "listen": "127.0.0.1",
            "port": 62789,
            "protocol": "dokodemo-door",
            "settings": {
                "address": "127.0.0.1"
            },
            "tag": "api"
        }
    ],
    "log": {
        "error": "./error.log",
        "loglevel": "warning"
    },
    "outbounds": [
        {
            "protocol": "freedom",
            "settings": {}
        },
        {
            "protocol": "blackhole",
            "settings": {},
            "tag": "blocked"
        },
        {
            "tag": "WARP",
            "protocol": "socks",
            "settings": {
                "servers": [
                    {
                        "address": "127.0.0.1",
                        "port": 40000
                    }
                ]
            }
        }
    ],
    "policy": {
        "levels": {
            "0": {
                "statsUserDownlink": true,
                "statsUserUplink": true
            }
        },
        "system": {
            "statsInboundDownlink": true,
            "statsInboundUplink": true
        }
    },
    "routing": {
        "domainStrategy": "IPIfNonMatch",
        "rules": [
            {
                "inboundTag": [
                    "api"
                ],
                "outboundTag": "api",
                "type": "field"
            },
            {
                "ip": [
                    "geoip:private"
                ],
                "outboundTag": "blocked",
                "type": "field"
            },
            {
                "outboundTag": "blocked",
                "protocol": [
                    "bittorrent"
                ],
                "type": "field"
            },
            {
                "type": "field",
                "outboundTag": "WARP",
                "domain": [
                    "geosite:google"
                ]
            },
            {
                "type": "field",
                "outboundTag": "blocked",
                "domain": [
                    "geosite:category-ads-all",
                    "ext:geosite_IR.dat:category-ads-all"
                ]
            },
            {
                "type": "field",
                "port": "0-65535",
                "outboundTag": "WARP"
            }
        ]
    },
    "stats": {},
    "dns": {
        "servers": [
            "1.1.1.3",
            "1.0.0.3",
            "94.140.14.15",
            "94.140.15.16"
        ],
        "queryStrategy": "UseIPv4"
    }
}